Web Scraping: A Primer
…
Scraping HTML tables

Finally, use html_table() to convert to a tibble (data frame) in R

This completes our scraping process

nhl_tbl <- nhl_url |> 
  read_html() |> 
  html_element(css = "#stats_career_NHL") |> 
  html_table()

nhl_tbl

# A tibble: 250 × 4
   Rank  Player           Years      GP
   <chr> <chr>            <chr>   <int>
 1 1.    Patrick Marleau  1997-21  1779
 2 2.    Gordie Howe*     1946-80  1767
 3 3.    Mark Messier*    1979-04  1756
 4 4.    Jaromír Jágr     1990-18  1733
 5 5.    Ron Francis*     1981-04  1731
 6 6.    Joe Thornton     1997-22  1714
 7 7.    Zdeno Chára      1997-22  1680
 8 8.    Mark Recchi*     1988-11  1652
 9 9.    Chris Chelios*   1983-10  1651
10 10.   Dave Andreychuk* 1982-06  1639
# ℹ 240 more rows
…
Not recommended

The inspection step (for obtaining CSS selector) can be skipped

html_table() can be called right after read_html()

This outputs a list of all the tables existed on the webpage

nhl_tbl_list <- nhl_url |> 
  read_html() |> 
  html_table()
nhl_tbl_list

[[1]]
# A tibble: 250 × 4
   Rank  Player           Years      GP
   <chr> <chr>            <chr>   <int>
 1 1.    Patrick Marleau  1997-21  1779
 2 2.    Gordie Howe*     1946-80  1767
 3 3.    Mark Messier*    1979-04  1756
 4 4.    Jaromír Jágr     1990-18  1733
 5 5.    Ron Francis*     1981-04  1731
 6 6.    Joe Thornton     1997-22  1714
 7 7.    Zdeno Chára      1997-22  1680
 8 8.    Mark Recchi*     1988-11  1652
 9 9.    Chris Chelios*   1983-10  1651
10 10.   Dave Andreychuk* 1982-06  1639
# ℹ 240 more rows

[[2]]
# A tibble: 50 × 4
   Rank  Player          Years      GP
   <chr> <chr>           <chr>   <int>
 1 1.    André Lacroix   1972-79   551
 2 2.    Ron Plumb       1972-79   549
 3 3.    Paul Shmyr      1972-79   511
 4 4.    Michel Parizeau 1972-79   509
 5 5.    Mike Antonovich 1972-79   486
 6 6.    Rick Ley        1972-79   478
 7 7.    John McKenzie   1972-79   477
 8 8.    Blair MacDonald 1973-79   476
 9 9.    Larry Pleau     1972-79   468
10 10.   Poul Popiel     1972-78   467
# ℹ 40 more rows

Not recommended

We can then subset out the desired table based on its index within the list

nhl_tbl_list[[1]]

# A tibble: 250 × 4
   Rank  Player           Years      GP
   <chr> <chr>            <chr>   <int>
 1 1.    Patrick Marleau  1997-21  1779
 2 2.    Gordie Howe*     1946-80  1767
 3 3.    Mark Messier*    1979-04  1756
 4 4.    Jaromír Jágr     1990-18  1733
 5 5.    Ron Francis*     1981-04  1731
 6 6.    Joe Thornton     1997-22  1714
 7 7.    Zdeno Chára      1997-22  1680
 8 8.    Mark Recchi*     1988-11  1652
 9 9.    Chris Chelios*   1983-10  1651
10 10.   Dave Andreychuk* 1982-06  1639
# ℹ 240 more rows
…
[1] FALSE

str_detect() can be used with filter() or within a conditional statement (e.g., with ifelse() or case_when())

Recall that filter() subsets out rows that satisfy a condition

str_detect()

Suppose we want to keep only the HOF players. We can detect all rows with the asterisk (*) with str_detect().

nhl_tbl |> 
  filter(str_detect(Player, "\\*"))

# A tibble: 78 × 4
   Rank  Player            Years      GP
   <chr> <chr>             <chr>   <int>
 1 2.    Gordie Howe*      1946-80  1767
 2 3.    Mark Messier*     1979-04  1756
 3 5.    Ron Francis*      1981-04  1731
 4 8.    Mark Recchi*      1988-11  1652
 5 9.    Chris Chelios*    1983-10  1651
 6 10.   Dave Andreychuk*  1982-06  1639
 7 11.   Scott Stevens*    1982-04  1635
 8 12.   Larry Murphy*     1980-01  1615
 9 13.   Ray Bourque*      1979-01  1612
10 14.   Nicklas Lidström* 1991-12  1564
# ℹ 68 more rows

str_detect()

Back to one of the data cleaning task mentioned earlier - we want to create an indicator variable for whether a player is in the HOF

nhl_tbl |> 
  mutate(HOF = ifelse(str_detect(Player, "\\*"), 1, 0))

# A tibble: 250 × 5
   Rank  Player           Years      GP   HOF
   <chr> <chr>            <chr>   <int> <dbl>
 1 1.    Patrick Marleau  1997-21  1779     0
 2 2.    Gordie Howe*     1946-80  1767     1
 3 3.    Mark Messier*    1979-04  1756     1
 4 4.    Jaromír Jágr     1990-18  1733     0
 5 5.    Ron Francis*     1981-04  1731     1
 6 6.    Joe Thornton     1997-22  1714     0
 7 7.    Zdeno Chára      1997-22  1680     0
 8 8.    Mark Recchi*     1988-11  1652     1
 9 9.    Chris Chelios*   1983-10  1651     1
10 10.   Dave Andreychuk* 1982-06  1639     1
# ℹ 240 more rows
…
str_remove()

Now we build upon the previous code to finish the data cleaning process.

Recall than we want to remove the asterisk (*) and dot (.) from the Player and Rank columns, respectively.

nhl_tbl_cleaned <- nhl_tbl |> 
  mutate(HOF = ifelse(str_detect(Player, "\\*"), 1, 0),
         Player = str_remove(Player, "\\*"),
         Rank = str_remove(Rank, "\\."))

nhl_tbl_cleaned

# A tibble: 250 × 5
   Rank  Player          Years      GP   HOF
   <chr> <chr>           <chr>   <int> <dbl>
 1 1     Patrick Marleau 1997-21  1779     0
 2 2     Gordie Howe     1946-80  1767     1
 3 3     Mark Messier    1979-04  1756     1
 4 4     Jaromír Jágr    1990-18  1733     0
 5 5     Ron Francis     1981-04  1731     1
 6 6     Joe Thornton    1997-22  1714     0
 7 7     Zdeno Chára     1997-22  1680     0
 8 8     Mark Recchi     1988-11  1652     1
 9 9     Chris Chelios   1983-10  1651     1
10 10    Dave Andreychuk 1982-06  1639     1
# ℹ 240 more rows
…
